{
	"id": 185,
	"from": "יחידה 6769",
	"date": 1760544295551,
	"link": "https://www.hamal.co.il/post/-LX4btGNb_8VtHTl3s2D",
	"content": "משרד הבריאות הפלסטיני: 22 מפגינים פלסטינים נפצעו כתוצאה מירי צה\"ל במהלך צעדת השיבה ה-44",
	"event_type": "עימותים ברצועת עזה",
	"location": {
		"lat": 31.526607610895258,
		"lng": 34.59675824927128
	}
}