{
	"id": 105,
	"from": "יחידה 6869",
	"date": 1968824205189,
	"link": "https://www.hamal.co.il/post/-La_ap_qXqiDoKcm3119",
	"content": "מקורות פלסטינים מדווחים כי עד כה נפצעו שני פלסטינים נפצעו באורח קשה ועוד שלושה באורח קל מירי צה\"ל במהלך העימותים בגבול הרצועה",
	"event_type": "עימותים ברצועת עזה",
	"location": {
		"lat": 31.52589093004722,
		"lng": 34.59624849573534
	}
}