{
	"id": 187,
	"from": "יחידה 844",
	"date": 1494041609350,
	"link": "https://www.hamal.co.il/post/-Laf2oB6Ot0FOJfR7TiX",
	"content": "תיעוד נוסף מזירת תקיפת צה\"ל ברצועה",
	"event_type": "עימותים ברצועת עזה",
	"location": {
		"lat": 31.3348629291932,
		"lng": 34.62060826099044
	}
}