{
	"id": 206,
	"from": "יחידה 657",
	"date": 1632956534365,
	"link": "https://www.hamal.co.il/post/-La0RTnWjNT3OqUO1U-w",
	"content": "דיווח ערבי: למרות ביטול צעדת השיבה, באזור קרני ישנן זריקות אבנים, שנענות בירי גז מדמיע של צה\"ל",
	"event_type": "עימותים ברצועת עזה",
	"location": {
		"lat": 31.33539541366699,
		"lng": 34.3955180146954
	}
}