{
	"id": 78,
	"from": "יחידה 5950",
	"date": 1337888676499,
	"link": "https://www.hamal.co.il/post/-LbUcj9zVsR9t6RMMKuI",
	"content": "דיווח ראשוני ובבדיקה על שיגור כושל מצפון הרצועה",
	"event_type": "רצועת עזה",
	"location": {
		"lat": 32.049469022064265,
		"lng": 34.7599702271411
	}
}