{
	"id": 333,
	"from": "יחידה 6461",
	"date": 1907682280232,
	"link": "https://www.hamal.co.il/post/-LYrKDYFmsRrR7pPNKjV",
	"content": "דיווח ערבי: פלסטינים מחבלים בגדר ההפרדה בגבול רצועת עזה",
	"event_type": "עימותים ברצועת עזה",
	"location": {
		"lat": 31.33485007891668,
		"lng": 34.395429543246905
	}
}