{
    "event": {
        "id": 55,
        "link": "https://www.hamal.co.il/post/-LcWoDRngjY8rT5vN1zq",
        "content": "טלאל אבו זריפה חבר הוועדה הלאומית העליונה לשבירת המצור, אמר כי הצד הישראלי מאט ביישום ההבנות על הקלת המצור ברצועת עזה.\n\nאבו זריפה אמר לרשת קודס כי הצד הישראלי אינו מכבד את ההסכם וממשיך את  השימוש באש חיה נגד מפגינים, דייגים וחקלאים, הוא הדגיש כי כל האופציות פתוחות כדי להגדיל את הלחץ ולהאיץ את יישום ההבנות, והוסיף: \"בימים אלו אנו בוחנים את החזרתם של יחידת בלבול הלילה\", תוך שהוא מציין כי הוועדה תשקול את כל האופציות בימים הקרובים.\n\nעוד הוסיף: \"הצד המצרי לא חדל למלא את תפקידו השיחות נמשכות\".  הוא ציין, שהתמונה תתבהר בימים הקרובים ובזמן הזה הוא ישתמש בכל כלי הלחץ האפשריים",
        "event_type": "רצועת עזה",
        "location": {
            "lat": 32.049916672056554,
            "lon": 34.75986597638694
        }
    }
}