{
    "event": {
        "id": 384,
        "link": "https://www.hamal.co.il/post/-LWfMPLqydoRoBdXafsj",
        "content": "מבקרים רבים פוקדם את אתר החרמון על אף היירוטים של כיפת ברזל. צילום: אתר החרמון",
        "event_type": "תקיפה בסוריה",
        "location": {
            "lat": 32.991728984431504,
            "lon": 35.76976165974293
        }
    }
}