{
    "event": {
        "id": 355,
        "link": "https://www.hamal.co.il/post/-Le6HaYEHFOWFHYY1dpF",
        "content": "דיווח ראשוני: הופעלה אזעקת צבע אדום במועצה האזורית אשכול. הפרטים בבדיקה - כך נמסר מדובר צה\"ל",
        "event_type": "הסלמה בדרום",
        "location": {
            "lat": 31.312244530206694,
            "lon": 34.620794610675865
        }
    }
}