{
    "event": {
        "id": 329,
        "link": "https://www.hamal.co.il/post/-LbCcdBsJg2ZVfrVcf5C",
        "content": "משרד הבריאות הפלסטיני בעזה אמר כי פלסטיני כבן 20 נהרג בעזה לאחר שנפגע במהלך הלילה בראשו מרסיס של אש צה\"ל. עם זאת, לא דווח היכן ומתי התבצע הירי שהביא למותו של הצעיר",
        "event_type": "עימותים ברצועת עזה",
        "location": {
            "lat": 31.335579641318976,
            "lon": 34.394663287029886
        }
    }
}