{
    "event": {
        "id": 263,
        "link": "https://www.hamal.co.il/post/-LvtPBLUT2-9mXGcIWoo",
        "content": "סיוע באיתור נעדר - אנא שתפו!\n\nמשטרת ישראל מבקשת סיוע באיתור נעדר העונה לשם משה ארדצ'ה, כבן 20.\n\nמשה נראה לאחרונה אתמול בישוב שערי תקווה בשעות הצהריים ומאז נעלמו עקבותיו.\n\nתיאורו: מבנה גופו בינוני, שיערו שחור, עינייו כהות, גוון עורו בהיר.\n\nכל היודע דבר על מקום הימצאו מתבקש לדווח למוקד 100 של המשטרה או לתחנת מוריה בטלפון: 025683200",
        "event_type": "איתור נעדר",
        "location": {
            "lat": 32.06862511151069,
            "lon": 34.82552595515598
        }
    }
}