{
    "event": {
        "id": 183,
        "link": "https://www.hamal.co.il/post/-LbES4ET6lon2myp2LaU",
        "content": "ראש הממשלה בנימין נתניהו הביע הערכה לכוחות היבשה בפיקוד הדרום, לחיל האוויר ולשאר זרועות הביטחון על הפעילות התקיפה וההיערכות המסיבית שסייעו להביא לרגיעה",
        "event_type": "עימותים ברצועת עזה",
        "location": {
            "lat": 31.31196212297152,
            "lon": 34.62130909367827
        }
    }
}