{
    "event": {
        "id": 264,
        "link": "https://www.hamal.co.il/post/-LXXSxXI4I1zQ-MHdPcV",
        "content": "עופרי לאונר בן 28 מכרמי יוסף, שנעדר מאז אתמול, אותר. תודה לכל מי שסייע בפרסום",
        "event_type": "איתור נעדר",
        "location": {
            "lat": 32.08046714289593,
            "lon": 34.78095652109332
        }
    }
}