{
    "event": {
        "id": 583,
        "link": "https://www.hamal.co.il/post/-LsbN5b-xeMtpJCrCvBT",
        "content": "משרד הבריאות הפלסטיני מדווח אודות 59 מפגינים פלסטינים שנפצעו במהלך העימותים בגבול רצועת עזה, זאת כחלק מצעדות השיבה",
        "event_type": "עימותים ברצועת עזה",
        "location": {
            "lat": 31.31283868060916,
            "lon": 34.39467159874605
        }
    }
}