{
    "event": {
        "id": 193,
        "link": "https://www.hamal.co.il/post/-LYrBwgHJ2JpzJIJkYo4",
        "content": "דיווח ערבי: יחידת התיזוז הלילי בדרכה לחאן יונס",
        "event_type": "רצועת עזה",
        "location": {
            "lat": 32.04965920894479,
            "lon": 34.75974077822517
        }
    }
}