{
    "event": {
        "id": 363,
        "link": "https://www.hamal.co.il/post/-LYwUx7PWL98UwRv9iOu",
        "content": "דיווח ערבי: לפני זמן קצר התפוצץ מטען רב עוצמה בגבול רצועת עזה  במהלך העימותים הלילים.\nהפיצוץ נשמע היטב בישובי הדרום.",
        "event_type": "עימותים ברצועת עזה",
        "location": {
            "lat": 31.312582568508642,
            "lon": 34.621728982853384
        }
    }
}