{
    "event": {
        "id": 452,
        "link": "https://www.hamal.co.il/post/-L_Nq0Pq7GVC-aFtnifv",
        "content": "אירוע הירי בגבול הרצועה: בודקים האם מדובר בירי צלפים אשר כיוון לכוחות צה\"ל",
        "event_type": "עימותים ברצועת עזה",
        "location": {
            "lat": 31.335137807783497,
            "lon": 34.620862508231774
        }
    }
}