{
    "event": {
        "id": 361,
        "link": "https://www.hamal.co.il/post/-LbCj4E96qcib__Z4Gye",
        "content": "תיעוד נוסף מרחובות עזה: הכול סגור לקראת העימותים הערב",
        "event_type": "רצועת עזה",
        "location": {
            "lat": 32.049368415058176,
            "lon": 34.75942327240003
        }
    }
}