{
    "event": {
        "id": 514,
        "link": "https://www.hamal.co.il/post/-LW0Ey5NawDc6lP3vicw",
        "content": "תיעוד נוסף מהתקיפה בסוריה שאירעה אמש",
        "event_type": "תקיפה בסוריה",
        "location": {
            "lat": 32.991720775765906,
            "lon": 35.7700605798997
        }
    }
}