{
    "event": {
        "id": 64,
        "link": "https://www.hamal.co.il/post/-LaRTEREZdOE57trQsBX",
        "content": "הפלסטינים מדווחים על ירי רקטה ממזרח הרצועה לעבר ישראל .",
        "event_type": "טרור העפיפונים ובלוני התבערה",
        "location": {
            "lat": 31.527006815339075,
            "lon": 34.39521529871656
        }
    }
}