{
    "event": {
        "id": 555,
        "link": "https://www.hamal.co.il/post/-LYx1rh4SaBlxgpVMNv2",
        "content": "דיווח ערבי: כוחות צה\"ל יורים פצצות תאורה באזור המערבי של קלקיליה.",
        "event_type": "הסלמה בדרום",
        "location": {
            "lat": 31.526544992961007,
            "lon": 34.62126643755476
        }
    }
}