{
    "event": {
        "id": 318,
        "link": "https://www.hamal.co.il/post/-LZGcYNi69OT1rquhPhO",
        "content": "עזרת הציבור באיתור נעדר \n\nמשטרת ישראל מבקשת את עזרת הציבור בחיפושייה אחר הנעדר נועם וייס, תושב לימן, בן 51, אשר נראה לאחרונה ביום 20.02.19 בשעה 23:00 במושב לימן והיום ניתן אישור המשפחה לפרסם את דבר היעדרותו.\nתיאורו:\nגובהו 1.80, מבנה גופו בינוני, שיערו שחור קצר. לבש מכנס ג'ינס ארוך, חולצה בהירה, ונעל נעלי ספורט.\n\nכל היודע דבר על מקום הימצאו  מתבקש להתקשר לתחנת נהריה בטלפון -04-9518444 או למוקד 100 בכל רחבי הארץ.\n\nשתפו וסייעו במציאתו!",
        "event_type": "איתור נעדר",
        "location": {
            "lat": 32.019377562032474,
            "lon": 34.78014969257703
        }
    }
}