{
    "event": {
        "id": 71,
        "link": "https://www.hamal.co.il/post/-Lb5bQoKPvK860zoz_EV",
        "content": "האזעקה שהופעלה בכיסופים שבמועצה האזורית אשכול היא כתוצאה מזריקת מטען רב עוצמה שהתפוצץ מערבית לגדר המערכת בשטח רצועת עזה. אין נפגעים",
        "event_type": "הסלמה בדרום",
        "location": {
            "lat": 31.52602168180041,
            "lon": 34.39518669400083
        }
    }
}