{
    "event": {
        "id": 582,
        "link": "https://www.hamal.co.il/post/-L_Srq7iIsA5yvxwEMG5",
        "content": "בלוני תבערה המחוברים לחפץ חשוד אותרו בשטח פתוח במועצה אזורית אשכול",
        "event_type": "עימותים ברצועת עזה",
        "location": {
            "lat": 31.526433450802703,
            "lon": 34.39564052501252
        }
    }
}