{
    "event": {
        "id": 690,
        "link": "https://www.hamal.co.il/post/-LWh20m5r1Xjv3kMkChV",
        "content": "שדה התעופה בדמשק בהאפלה והמטוס האירני כיבה מערכות זיהוי לפני הנחיתה",
        "event_type": "תקיפה בסוריה",
        "location": {
            "lat": 32.9924325901042,
            "lon": 35.769636758764634
        }
    }
}