{
    "event": {
        "id": 1,
        "link": "https://www.hamal.co.il/post/-Laqlj7WosEV8BKPV3NY",
        "content": "הפסקות חשמל במספר יישובים המועצה האזורית שער הנגב",
        "event_type": "הסלמה בדרום",
        "location": {
            "lat": 31.525942837952083,
            "lon": 34.59669981017577
        }
    }
}