{
    "event": {
        "id": 319,
        "link": "https://www.hamal.co.il/post/-Le1Ivf524SfTTPlBssI",
        "content": "תיעוד נוסף מהתקיפות ברצועת עזה",
        "event_type": "הסלמה בדרום",
        "location": {
            "lat": 31.52704022649217,
            "lon": 34.3947277423702
        }
    }
}