{
    "event": {
        "id": 647,
        "link": "https://www.hamal.co.il/post/-Lap4YYya1gNVmPrqa1a",
        "content": "צה\"ל תגבר את פריסת סוללות כיפת ברזל ברחבי הארץ",
        "event_type": "הסלמה בדרום",
        "location": {
            "lat": 31.526639304215543,
            "lon": 34.62046706238578
        }
    }
}